The Scientific Study of Politics - Relationships I
…
An object is a “thing” that lives in R that we can use; think of the pantry metaphor!

In this class, 99.99% of objects are just data

Data has variables which are represented as columns

Objects ➡️ Data ➡️ Variables

Data, objects, variables

trade is a data object that contains variables like imports

trade

# A tibble: 11,493 × 10
   country          year imports exports     gdp    pop land_borders sea_borders
   <chr>           <dbl>   <dbl>   <dbl>   <dbl>  <dbl>        <dbl>       <dbl>
 1 United States …  1946    5000    9775 2.48e12 1.38e8            2           1
 2 United States …  1947    5824   15369 2.43e12 1.40e8            2           1
 3 United States …  1948    7710   12470 2.49e12 1.43e8            2           1
 4 United States …  1949    7160   11920 2.47e12 1.47e8            2           1
 5 United States …  1950    9140   10220 2.56e12 1.49e8            2           1
 6 United States …  1951   11400   14920 2.73e12 1.51e8            2           1
 7 United States …  1952   11220   14950 2.82e12 1.53e8            2           1
 8 United States …  1953   11460   15330 2.99e12 1.56e8            2           1
 9 United States …  1954   10670   14690 3.00e12 1.59e8            2           1
10 United States …  1955   11850   15410 3.10e12 1.62e8            2           1
# ℹ 11,483 more rows
# ℹ 2 more variables: min_cap_dist <dbl>, sum_igos <dbl>
…
Summarizing condenses data into statistics

Using summarize()

Say I want to know the average life expectancy in the world in 2007:

gapminder %>% 
  filter(year == 2007)

# A tibble: 142 × 6
   country     continent  year lifeExp       pop gdpPercap
   <fct>       <fct>     <int>   <dbl>     <int>     <dbl>
 1 Afghanistan Asia       2007    43.8  31889923      975.
 2 Albania     Europe     2007    76.4   3600523     5937.
 3 Algeria     Africa     2007    72.3  33333216     6223.
 4 Angola      Africa     2007    42.7  12420476     4797.
 5 Argentina   Americas   2007    75.3  40301927    12779.
 6 Australia   Oceania    2007    81.2  20434176    34435.
 7 Austria     Europe     2007    79.8   8199783    36126.
 8 Bahrain     Asia       2007    75.6    708573    29796.
 9 Bangladesh  Asia       2007    64.1 150448339     1391.
10 Belgium     Europe     2007    79.4  10392226    33693.
# ℹ 132 more rows
…
# A tibble: 1 × 1
  var_trade
      <dbl>
1     2096.

Using group_by()

We can use group_by() in combination with summarize() to calculate some stat by another variable in the data:

trade %>% 
  group_by(country) %>%  
  summarise(var_trade = sd(imports, na.rm = TRUE)) 

# A tibble: 202 × 2
   country           var_trade
   <chr>                 <dbl>
 1 Afghanistan           2485.
 2 Albania               1754.
 3 Algeria              14819.
 4 Andorra                 NA 
 5 Angola                7584.
 6 Antigua & Barbuda       NA 
 7 Argentina            19530.
 8 Armenia               1575.
 9 Australia            72784.
10 Austria              58474.
# ℹ 192 more rows

Using group_by()

Like with anything else, we can store our results as a new object:

var_time = trade %>% 
  group_by(country) %>% 
  summarise(var_trade = sd(imports, na.rm = TRUE))

var_time

# A tibble: 202 × 2
   country           var_trade
   <chr>                 <dbl>
 1 Afghanistan           2485.
 2 Albania               1754.
 3 Algeria              14819.
 4 Andorra                 NA 
 5 Angola                7584.
 6 Antigua & Barbuda       NA 
 7 Argentina            19530.
 8 Armenia               1575.
 9 Australia            72784.
10 Austria              58474.
# ℹ 192 more rows
…
Using group_by()

We can even group_by() multiple variables 🤯

Average life expectancy per year and continent:

gapminder %>%
  group_by(year, continent) %>% 
  summarise(avg_life = mean(lifeExp))

# A tibble: 60 × 3
# Groups:   year [12]
    year continent avg_life
   <int> <fct>        <dbl>
 1  1952 Africa        39.1
 2  1952 Americas      53.3
 3  1952 Asia          46.3
 4  1952 Europe        64.4
 5  1952 Oceania       69.3
 6  1957 Africa        41.3
 7  1957 Americas      56.0
 8  1957 Asia          49.3
 9  1957 Europe        66.7
10  1957 Oceania       70.3
# ℹ 50 more rows
…
