The Scientific Study of Politics - Prediction
…
Sequence of scenarios

Or we can look at a sequence of scenarios using the seq() function

Example: estimates for every weight between 2 and 6 tons, in .1 ton increments

seq_weights = crossing(wt = seq(from = 2, to = 6, by = .1)) 
seq_weights

# A tibble: 41 × 1
      wt
   <dbl>
 1   2  
 2   2.1
 3   2.2
 4   2.3
 5   2.4
 6   2.5
 7   2.6
 8   2.7
 9   2.8
10   2.9
# ℹ 31 more rows

Note

seq needs a starting point (from), an end point (to), and an interval (by)

Prediction (in R)

And then get predictions for all these scenarios:

augment(weight_model, newdata = seq_weights)

# A tibble: 41 × 2
      wt .fitted
   <dbl>   <dbl>
 1   2      26.6
 2   2.1    26.1
 3   2.2    25.5
 4   2.3    25.0
 5   2.4    24.5
 6   2.5    23.9
 7   2.6    23.4
 8   2.7    22.9
 9   2.8    22.3
10   2.9    21.8
# ℹ 31 more rows
…
Remember data |> distinct(variable) to see a variable’s values

Holding all else constant

One cool part of multiple regression is that we can see what happens to our estimates when one variable changes but the others are held at a fixed value

Holding all else in the model constant, how does increasing a car’s horsepower change its fuel efficiency?

We can use seq() to see what happens when horsepower changes while everything else is left at a fixed value

varying_hp = crossing(wt = 3, cyl = 4, am = 1, hp = seq(from = 50, to = 340, by = 5))

augment(big_model, newdata = varying_hp)

# A tibble: 59 × 5
      wt   cyl    am    hp .fitted
   <dbl> <dbl> <dbl> <dbl>   <dbl>
 1     3     4     1    50    25.6
 2     3     4     1    55    25.5
 3     3     4     1    60    25.3
 4     3     4     1    65    25.2
 5     3     4     1    70    25.1
 6     3     4     1    75    25.0
 7     3     4     1    80    24.8
 8     3     4     1    85    24.7
 9     3     4     1    90    24.6
10     3     4     1    95    24.5
# ℹ 49 more rows
…
Imaginary scenarios

How different would this all look in different continents? We can vary continents too:

life_continent_scenario = crossing(gdpPercap = seq(from = 5000, to = 100000, by = 5000), 
                       pop = 20000000, year = 2005, 
                       continent = c("Asia", "Africa", "Americas", "Europe")) 
augment(life_model, newdata = life_continent_scenario)

# A tibble: 80 × 5
   gdpPercap      pop  year continent .fitted
       <dbl>    <dbl> <dbl> <chr>       <dbl>
 1      5000 20000000  2005 Africa       57.0
 2      5000 20000000  2005 Americas     71.3
 3      5000 20000000  2005 Asia         66.4
 4      5000 20000000  2005 Europe       76.4
 5     10000 20000000  2005 Africa       58.5
 6     10000 20000000  2005 Americas     72.8
 7     10000 20000000  2005 Asia         67.9
 8     10000 20000000  2005 Europe       77.9
 9     15000 20000000  2005 Africa       60.0
10     15000 20000000  2005 Americas     74.3
# ℹ 70 more rows
…
