The Scientific Study of Politics - Relationships II
…
Approximately 24% of world leaders have combat experience, or

there’s a 24% chance a randomly selected leader has combat experience

Dummy variables

Like with anything else, we can take averages by groups

For example, combat experience by country

leader %>% 
  group_by(country) %>%
  summarise(combat = mean(combat, na.rm = TRUE))

# A tibble: 189 × 2
   country combat
   <chr>    <dbl>
 1 AFG      0.479
 2 ALB      0.255
 3 ALG      0.403
 4 ANG      0    
 5 ARG      0.362
 6 ARM      0    
 7 AUH      0.958
 8 AUL      0.110
 9 AUS      0.234
10 AZE      0    
# ℹ 179 more rows
…
Hitmonchan
fighting

Scizor
bug

Counting categories

We can use a new function count(), to count how many observations are in each category:

pokemon

# A tibble: 801 × 14
   name       type1 type2  height_m weight_kg capture_rate    hp attack defense
   <chr>      <chr> <chr>     <dbl>     <dbl>        <dbl> <dbl>  <dbl>   <dbl>
 1 Bulbasaur  grass poison      0.7       6.9           45    45     49      49
 2 Ivysaur    grass poison      1        13             45    60     62      63
 3 Venusaur   grass poison      2       100             45    80    100     123
 4 Charmander fire  <NA>        0.6       8.5           45    39     52      43
 5 Charmeleon fire  <NA>        1.1      19             45    58     64      58
 6 Charizard  fire  flying      1.7      90.5           45    78    104      78
 7 Squirtle   water <NA>        0.5       9             45    44     48      65
 8 Wartortle  water <NA>        1        22.5           45    59     63      80
 9 Blastoise  water <NA>        1.6      85.5           45    79    103     120
10 Caterpie   bug   <NA>        0.3       2.9          255    45     30      35
# ℹ 791 more rows
# ℹ 5 more variables: sp_attack <dbl>, sp_defense <dbl>, speed <dbl>,
#   generation <dbl>, is_legendary <dbl>
…
