The Scientific Study of Politics - Causality II
…
A DAG like this will produce a correlation between Waffles and Divorce, even when there is no causal relationship

This is called confounding: the South is confounding the relationship between Waffles and Divorce

How does confounding happen?

Let’s make up data to convince ourselves confounding is possible

fifty states, about half of them are in the South

tibble(south = sample(c(0, 1), size = 50, replace = TRUE))

# A tibble: 50 × 1
   south
   <dbl>
 1     0
 2     0
 3     0
 4     0
 5     0
 6     0
 7     1
 8     0
 9     1
10     0
# ℹ 40 more rows

Note

sample() is choosing at random between 0 and 1, 50 times, with replacement

Simulate the treatment

Step 2: make Waffle houses, let’s say about 20 per million residents, +/- 4

tibble(south = sample(c(0, 1), size = 50, replace = TRUE), 
       waffle = rnorm(n = 50, mean = 20, sd = 4))

# A tibble: 50 × 2
   south waffle
   <dbl>  <dbl>
 1     1   26.6
 2     1   22.8
 3     1   22.6
 4     1   18.3
 5     1   18.1
 6     1   24.0
 7     1   16.2
 8     1   13.1
 9     0   21.6
10     0   26.2
# ℹ 40 more rows

Make Waffles more common in the South

Step 3: The arrow from South to Waffles, let’s say Southern states have about 10 more Waffles, on average

tibble(south = sample(c(0, 1), size = 50, replace = TRUE), 
       waffle = rnorm(n = 50, mean = 20, sd = 4) + 10 * south)

# A tibble: 50 × 2
   south waffle
   <dbl>  <dbl>
 1     0   20.4
 2     1   25.7
 3     0   20.6
 4     0   20.0
 5     0   17.8
 6     1   28.0
 7     0   26.4
 8     1   23.3
 9     1   32.3
10     0   19.9
# ℹ 40 more rows
…
