The Scientific Study of Politics - Prediction
…
# A tibble: 1 × 5
  noble military suitindex reparto2 .fitted
  <dbl>    <dbl>     <dbl>    <dbl>   <dbl>
1     1        0       0.8    98000   4869.

movies

Note: turns out the movies dataset has an issue with the way I stored the title variable that makes it very difficult to filter() with 😔. I found a solution below, but you don’t have to worry about knowing it.

Fit a model that predicts gross (outcome) using genre1, duration, budget, year, imdb_score, and whether or not it’s in color.

movies_model = lm(gross ~ genre1 + duration + budget + year + imdb_score + color, data = movies)
tidy(movies_model)

# A tibble: 22 × 5
   term                estimate  std.error statistic   p.value
   <chr>                  <dbl>      <dbl>     <dbl>     <dbl>
 1 (Intercept)       818547152. 207136694.      3.95 0.0000793
 2 genre1Adventure    10415044.   3603363.      2.89 0.00388  
 3 genre1Animation    17298146.   8886217.      1.95 0.0517   
 4 genre1Biography   -10777045.   5146622.     -2.09 0.0363   
 5 genre1Comedy        7659542.   2856661.      2.68 0.00737  
 6 genre1Crime       -14882152.   4347999.     -3.42 0.000628 
 7 genre1Documentary -10605535.   9475879.     -1.12 0.263    
 8 genre1Drama       -11407163.   3278448.     -3.48 0.000509 
 9 genre1Family      112609248.  30165053.      3.73 0.000193 
10 genre1Fantasy      11158684.   9641566.      1.16 0.247    
# ℹ 12 more rows
…
