The Scientific Study of Politics - Uncertainty
…
Here’s the code we’ll be using in class. Download it and store it with the rest of your materials for this course. If simply clicking doesn’t trigger download, you should right-click and select “save link as…”

Day one: 👩‍💻 09-uncertainty.R

Example using stevedata

Let’s look at data on abortion attitudes from the stevedata package. We’ll use the gss_abortion dataset.

library(tidyverse)
library(moderndive)
library(stevedata)

gss_abortion

# A tibble: 64,814 × 18
      id  year   age race  sex    hispaniccat  educ partyid       relactiv abany
   <dbl> <dbl> <dbl> <chr> <chr>        <dbl> <dbl> <chr>            <dbl> <dbl>
 1     1  1972    23 White Female          NA    16 Ind,Near Dem        NA    NA
 2     2  1972    70 White Male            NA    10 Not Str Demo…       NA    NA
 3     3  1972    48 White Female          NA    12 Independent         NA    NA
 4     4  1972    27 White Female          NA    17 Not Str Demo…       NA    NA
 5     5  1972    61 White Female          NA    12 Strong Democ…       NA    NA
 6     6  1972    26 White Male            NA    14 Ind,Near Dem        NA    NA
 7     7  1972    28 White Male            NA    13 Ind,Near Dem        NA    NA
 8     8  1972    27 White Male            NA    16 Ind,Near Dem        NA    NA
 9     9  1972    21 Black Female          NA    12 Strong Democ…       NA    NA
10    10  1972    30 Black Female          NA    12 Strong Democ…       NA    NA
# ℹ 64,804 more rows
# ℹ 8 more variables: abdefect <dbl>, abnomore <dbl>, abhlth <dbl>,
#   abpoor <dbl>, abrape <dbl>, absingle <dbl>, pid <dbl>, hispanic <dbl>
…
So 41% of Americans in this imaginary world think abortion should be legal for any reason.

But what if instead of having access to the full population of Americans (gss_abortion), we only had a sample of 10 people? Let’s take 1,000 samples from gss_abortion, each of size 10, and calculate the average support for abortion in each of those samples:

set.seed(1990)

samples = rep_sample_n(gss_abortion, size = 10, reps = 1000) |> 
  summarise(avg_abortion = mean(abany, na.rm = TRUE))
samples

# A tibble: 1,000 × 2
   replicate avg_abortion
       <int>        <dbl>
 1         1        0.143
 2         2        1    
 3         3        0.2  
 4         4        0.333
 5         5        0.25 
 6         6        0    
 7         7        0.429
 8         8        0.4  
 9         9        0.167
10        10        0.333
# ℹ 990 more rows
…
