The Scientific Study of Politics - Data wrangling II
…
Using mutate

murder_set

# A tibble: 100 × 4
   state      city       population murder_total
   <chr>      <chr>           <dbl>        <dbl>
 1 Alabama    Mobile         248431        50.0 
 2 Alaska     Anchorage      296188        27.0 
 3 Arizona    Chandler       249355         5.01
 4 Arizona    Gilbert        242090         5.01
 5 Arizona    Glendale       249273        12.0 
 6 Arizona    Mesa           492268        23.0 
 7 Arizona    Phoenix       1608139       154.  
 8 Arizona    Scottsdale     251840         5.01
 9 Arizona    Tucson         532323        46.0 
10 California Anaheim        353400        10.0 
# ℹ 90 more rows

Using mutate

murder_set |> 
  mutate()

# A tibble: 100 × 4
   state      city       population murder_total
   <chr>      <chr>           <dbl>        <dbl>
 1 Alabama    Mobile         248431        50.0 
 2 Alaska     Anchorage      296188        27.0 
 3 Arizona    Chandler       249355         5.01
 4 Arizona    Gilbert        242090         5.01
 5 Arizona    Glendale       249273        12.0 
 6 Arizona    Mesa           492268        23.0 
 7 Arizona    Phoenix       1608139       154.  
 8 Arizona    Scottsdale     251840         5.01
 9 Arizona    Tucson         532323        46.0 
10 California Anaheim        353400        10.0 
# ℹ 90 more rows

Using mutate

murder_set |> 
  mutate(murder_capita = murder_total / population)

# A tibble: 100 × 5
   state      city       population murder_total murder_capita
   <chr>      <chr>           <dbl>        <dbl>         <dbl>
 1 Alabama    Mobile         248431        50.0      0.000201 
 2 Alaska     Anchorage      296188        27.0      0.0000912
 3 Arizona    Chandler       249355         5.01     0.0000201
 4 Arizona    Gilbert        242090         5.01     0.0000207
 5 Arizona    Glendale       249273        12.0      0.0000481
 6 Arizona    Mesa           492268        23.0      0.0000467
 7 Arizona    Phoenix       1608139       154.       0.0000955
 8 Arizona    Scottsdale     251840         5.01     0.0000199
 9 Arizona    Tucson         532323        46.0      0.0000864
10 California Anaheim        353400        10.0      0.0000283
# ℹ 90 more rows

Notice that I named a new variable, murder_capita

Using mutate

murder_set |> 
  mutate(murder_capita = murder_total / population, 
         murder_rate = murder_capita * 100000)

# A tibble: 100 × 6
   state      city       population murder_total murder_capita murder_rate
   <chr>      <chr>           <dbl>        <dbl>         <dbl>       <dbl>
 1 Alabama    Mobile         248431        50.0      0.000201        20.1 
 2 Alaska     Anchorage      296188        27.0      0.0000912        9.12
 3 Arizona    Chandler       249355         5.01     0.0000201        2.01
 4 Arizona    Gilbert        242090         5.01     0.0000207        2.07
 5 Arizona    Glendale       249273        12.0      0.0000481        4.81
 6 Arizona    Mesa           492268        23.0      0.0000467        4.67
 7 Arizona    Phoenix       1608139       154.       0.0000955        9.55
 8 Arizona    Scottsdale     251840         5.01     0.0000199        1.99
 9 Arizona    Tucson         532323        46.0      0.0000864        8.64
10 California Anaheim        353400        10.0      0.0000283        2.83
# ℹ 90 more rows

Notice the new columns

Forgetting to store

If you don’t store your changes, they will melt away, like tears in the rain

murder_set |> 
  mutate(murder_capita = murder_total / population, 
         murder_rate = murder_capita * 100000)

murder_set

# A tibble: 100 × 4
   state      city       population murder_total
   <chr>      <chr>           <dbl>        <dbl>
 1 Alabama    Mobile         248431        50.0 
 2 Alaska     Anchorage      296188        27.0 
 3 Arizona    Chandler       249355         5.01
 4 Arizona    Gilbert        242090         5.01
 5 Arizona    Glendale       249273        12.0 
 6 Arizona    Mesa           492268        23.0 
 7 Arizona    Phoenix       1608139       154.  
 8 Arizona    Scottsdale     251840         5.01
 9 Arizona    Tucson         532323        46.0 
10 California Anaheim        353400        10.0 
# ℹ 90 more rows
…
murder_rates = murder_set |>
  mutate(murder_capita = murder_total / population, 
         murder_rate = murder_capita * 100000)

Or overwrite the old one

murder_set = murder_set |>
  mutate(murder_capita = murder_total / population, 
         murder_rate = murder_capita * 100000)

In general, overwriting when you are adding stuff to your data (mutate) is fine

murder_set

# A tibble: 100 × 6
   state      city       population murder_total murder_capita murder_rate
   <chr>      <chr>           <dbl>        <dbl>         <dbl>       <dbl>
 1 Alabama    Mobile         248431        50.0      0.000201        20.1 
 2 Alaska     Anchorage      296188        27.0      0.0000912        9.12
 3 Arizona    Chandler       249355         5.01     0.0000201        2.01
 4 Arizona    Gilbert        242090         5.01     0.0000207        2.07
 5 Arizona    Glendale       249273        12.0      0.0000481        4.81
 6 Arizona    Mesa           492268        23.0      0.0000467        4.67
 7 Arizona    Phoenix       1608139       154.       0.0000955        9.55
 8 Arizona    Scottsdale     251840         5.01     0.0000199        1.99
 9 Arizona    Tucson         532323        46.0      0.0000864        8.64
10 California Anaheim        353400        10.0      0.0000283        2.83
# ℹ 90 more rows

New object, or overwite the old one?

Overwriting when you are removing information from the data can be bad

For example, when we filter()

gapminder = gapminder |> 
  filter(continent == "Africa")
gapminder

# A tibble: 624 × 6
   country continent  year lifeExp      pop gdpPercap
   <fct>   <fct>     <int>   <dbl>    <int>     <dbl>
 1 Algeria Africa     1952    43.1  9279525     2449.
 2 Algeria Africa     1957    45.7 10270856     3014.
 3 Algeria Africa     1962    48.3 11000948     2551.
 4 Algeria Africa     1967    51.4 12760499     3247.
 5 Algeria Africa     1972    54.5 14760787     4183.
 6 Algeria Africa     1977    58.0 17152804     4910.
 7 Algeria Africa     1982    61.4 20033753     5745.
 8 Algeria Africa     1987    65.8 23254956     5681.
 9 Algeria Africa     1992    67.7 26298373     5023.
10 Algeria Africa     1997    69.2 29072015     4797.
# ℹ 614 more rows
…
Newton County
MS
0.69
0.30

Who won the county?

The general formula: case_when(CONDITION ~ LABEL)

small_elections

# A tibble: 3,152 × 4
   name            state per_gop_2020 per_dem_2020
   <chr>           <chr>        <dbl>        <dbl>
 1 Autauga County  AL           0.714       0.270 
 2 Baldwin County  AL           0.762       0.224 
 3 Barbour County  AL           0.535       0.458 
 4 Bibb County     AL           0.784       0.207 
 5 Blount County   AL           0.896       0.0957
 6 Bullock County  AL           0.248       0.747 
 7 Butler County   AL           0.575       0.418 
 8 Calhoun County  AL           0.688       0.298 
 9 Chambers County AL           0.573       0.416 
10 Cherokee County AL           0.860       0.132 
# ℹ 3,142 more rows

Who won the county?

The general formula: case_when(CONDITION ~ LABEL)

small_elections |> 
  mutate(who_won = case_when(per_gop_2020 > per_dem_2020 ~ "Republicans"))

# A tibble: 3,152 × 5
   name            state per_gop_2020 per_dem_2020 who_won    
   <chr>           <chr>        <dbl>        <dbl> <chr>      
 1 Autauga County  AL           0.714       0.270  Republicans
 2 Baldwin County  AL           0.762       0.224  Republicans
 3 Barbour County  AL           0.535       0.458  Republicans
 4 Bibb County     AL           0.784       0.207  Republicans
 5 Blount County   AL           0.896       0.0957 Republicans
 6 Bullock County  AL           0.248       0.747  <NA>       
 7 Butler County   AL           0.575       0.418  Republicans
 8 Calhoun County  AL           0.688       0.298  Republicans
 9 Chambers County AL           0.573       0.416  Republicans
10 Cherokee County AL           0.860       0.132  Republicans
# ℹ 3,142 more rows
Note

Remember when we mutate() we have to name the new variable

point out the NA

Who won the county?

The general formula: case_when(CONDITION ~ LABEL)

small_elections |> 
  mutate(who_won = case_when(per_gop_2020 > per_dem_2020 ~ "Republicans",
                             per_dem_2020 > per_gop_2020 ~ "Democrats"))

# A tibble: 3,152 × 5
   name            state per_gop_2020 per_dem_2020 who_won    
   <chr>           <chr>        <dbl>        <dbl> <chr>      
 1 Autauga County  AL           0.714       0.270  Republicans
 2 Baldwin County  AL           0.762       0.224  Republicans
 3 Barbour County  AL           0.535       0.458  Republicans
 4 Bibb County     AL           0.784       0.207  Republicans
 5 Blount County   AL           0.896       0.0957 Republicans
 6 Bullock County  AL           0.248       0.747  Democrats  
 7 Butler County   AL           0.575       0.418  Republicans
 8 Calhoun County  AL           0.688       0.298  Republicans
 9 Chambers County AL           0.573       0.416  Republicans
10 Cherokee County AL           0.860       0.132  Republicans
# ℹ 3,142 more rows

How would I add condition for tie?

OK but by how much?

Our categories can be more complex, for instance the win margin

Step 1: calculate the win margin

small_elections |> 
  mutate(margin = per_gop_2020 - per_dem_2020)

# A tibble: 3,152 × 5
   name            state per_gop_2020 per_dem_2020  margin
   <chr>           <chr>        <dbl>        <dbl>   <dbl>
 1 Autauga County  AL           0.714       0.270   0.444 
 2 Baldwin County  AL           0.762       0.224   0.538 
 3 Barbour County  AL           0.535       0.458   0.0766
 4 Bibb County     AL           0.784       0.207   0.577 
 5 Blount County   AL           0.896       0.0957  0.800 
 6 Bullock County  AL           0.248       0.747  -0.499 
 7 Butler County   AL           0.575       0.418   0.157 
 8 Calhoun County  AL           0.688       0.298   0.390 
 9 Chambers County AL           0.573       0.416   0.156 
10 Cherokee County AL           0.860       0.132   0.728 
# ℹ 3,142 more rows

OK but by how much?

Step 2: add the categories

small_elections |> 
  mutate(margin = per_gop_2020 - per_dem_2020) |> 
  mutate(who_won = case_when(margin > 0 & margin < .1 ~ "R < 10"))

# A tibble: 3,152 × 6
   name            state per_gop_2020 per_dem_2020  margin who_won
   <chr>           <chr>        <dbl>        <dbl>   <dbl> <chr>  
 1 Autauga County  AL           0.714       0.270   0.444  <NA>   
 2 Baldwin County  AL           0.762       0.224   0.538  <NA>   
 3 Barbour County  AL           0.535       0.458   0.0766 R < 10 
 4 Bibb County     AL           0.784       0.207   0.577  <NA>   
 5 Blount County   AL           0.896       0.0957  0.800  <NA>   
 6 Bullock County  AL           0.248       0.747  -0.499  <NA>   
 7 Butler County   AL           0.575       0.418   0.157  <NA>   
 8 Calhoun County  AL           0.688       0.298   0.390  <NA>   
 9 Chambers County AL           0.573       0.416   0.156  <NA>   
10 Cherokee County AL           0.860       0.132   0.728  <NA>   
# ℹ 3,142 more rows

OK but by how much?

Step 3: keep adding categories

small_elections |> 
  mutate(margin = per_gop_2020 - per_dem_2020) |> 
  mutate(who_won = case_when(margin > 0 & margin < .1 ~ "R < 10",
                             margin >= .1 & margin < .2 ~ "R + 10"))

# A tibble: 3,152 × 6
   name            state per_gop_2020 per_dem_2020  margin who_won
   <chr>           <chr>        <dbl>        <dbl>   <dbl> <chr>  
 1 Autauga County  AL           0.714       0.270   0.444  <NA>   
 2 Baldwin County  AL           0.762       0.224   0.538  <NA>   
 3 Barbour County  AL           0.535       0.458   0.0766 R < 10 
 4 Bibb County     AL           0.784       0.207   0.577  <NA>   
 5 Blount County   AL           0.896       0.0957  0.800  <NA>   
 6 Bullock County  AL           0.248       0.747  -0.499  <NA>   
 7 Butler County   AL           0.575       0.418   0.157  R + 10 
 8 Calhoun County  AL           0.688       0.298   0.390  <NA>   
 9 Chambers County AL           0.573       0.416   0.156  R + 10 
10 Cherokee County AL           0.860       0.132   0.728  <NA>   
# ℹ 3,142 more rows
…
