The Scientific Study of Politics - Causality I
…
First step is generating fake elections results (treatment)

Let’s say we have 500 fake elections that are pretty close to 50 (a tie), plus or minus 5 points

Faking (simulating) the treatment

We can use tibble() and rnorm() to simulate variables

elections (treatment) = 500 elections, vote share is 50% of the vote on average, +/- 5%

fake_election = tibble(party_share = rnorm(n = 500, mean = 50, sd = 5))
fake_election

# A tibble: 500 × 1
   party_share
         <dbl>
 1        53.4
 2        46.1
 3        56.7
 4        41.1
 5        51.5
 6        50.9
 7        46.3
 8        43.9
 9        54.8
10        50.4
# ℹ 490 more rows
…
Making the outcome

Next we want to make up campaign fundraising (outcome)

Let’s say parties raise about 20k on average, plus or minus 4k

fake_election = tibble(party_share = rnorm(n = 500, mean = 50, sd = 5), 
                       funding = rnorm(n = 500, mean = 20000, sd = 4000))
fake_election

# A tibble: 500 × 2
   party_share funding
         <dbl>   <dbl>
 1        62.2  14742.
 2        47.2  17415.
 3        52.0  12808.
 4        55.6  21241.
 5        54.2  25790.
 6        49.6  22222.
 7        59.9  23076.
 8        64.3  16842.
 9        47.0  29356.
10        46.5  18352.
# ℹ 490 more rows
…
Say for every percent of the vote a party gets, they get 2,000 (USD) more in donations

this is the causal effect of vote share (treatment) on campaign donations (outcome) \(\rightarrow\)

2,000 (USD) per percent of the vote a party gets in an election

Making X cause Y

We can do this in R like so:

fake_election = tibble(party_share = rnorm(n = 500, mean = 50, sd = 5), 
                       funding = rnorm(n = 500, mean = 20000, sd = 4000) + 2000 * party_share)
fake_election

# A tibble: 500 × 2
   party_share funding
         <dbl>   <dbl>
 1        56.9 127179.
 2        46.5 107465.
 3        48.5 115635.
 4        46.6 111400.
 5        48.5 118418.
 6        45.2 117334.
 7        48.9 117183.
 8        55.7 134937.
 9        60.0 141212.
10        56.1 135144.
# ℹ 490 more rows
…
